Company Financials Dataset Analysis
…
Reshape the data to a long format using pivot_longer()

financials_long <- financials_product |> 
  pivot_longer(
    cols = -Product,
    names_to = "Metric",
    values_to = "Value"
  )
financials_long

# A tibble: 36 × 3
   Product   Metric                  Value
   <chr>     <chr>                   <dbl>
 1 Amarilla  Gross_Sales         19037280.
 2 Amarilla  Manufacturing_Price    24440 
 3 Amarilla  Profit               2936044.
 4 Amarilla  Discounts            1290163.
 5 Amarilla  Sales               17747116.
 6 Amarilla  COGS                14933012 
 7 Carretera Gross_Sales         14937520.
 8 Carretera Manufacturing_Price      279 
 9 Carretera Profit               2057915.
10 Carretera Discounts            1122213.
# ℹ 26 more rows
…
Reshape the data to a long format using pivot_longer()

financials_long_country <- financials_country |> 
  pivot_longer(
    cols = -Country,
    names_to = "Metric",
    values_to = "Value"
  )
financials_long_country

# A tibble: 30 × 3
   Country Metric                  Value
   <chr>   <chr>                   <dbl>
 1 Canada  Gross_Sales         26932164.
 2 Canada  Manufacturing_Price    13150 
 3 Canada  Profit               3693718.
 4 Canada  Discounts            2044509.
 5 Canada  Sales               24887655.
 6 Canada  COGS                21358426 
 7 France  Gross_Sales         26081674.
 8 France  Manufacturing_Price    13374 
 9 France  Profit               3906755.
10 France  Discounts            1727502.
# ℹ 20 more rows
…
